--------
 New Game of Puerto Rico! 

Joel's score is 40.  Lee's score is 45.  Rod's score is 30.  Al's score is 45.  Mikey's score is 45.  
--------
 New Game of Puerto Rico! 

James's score is 30.  Mark's score is 45.  Joel's score is 30.  Vane's score is 35.  Al's score is 35.  
--------
 New Game of Puerto Rico! 

Vane's score is 45.  Mikey's score is 35.  Lee's score is 30.  James's score is 45.  Mark's score is 50.  
--------
 New Game of Puerto Rico! 

Phil's score is 30.  Mikey's score is 30.  Vane's score is 35.  James's score is 50.  Al's score is 30.  
--------
 New Game of Puerto Rico! 

Phil's score is 45.  Vane's score is 50.  Lee's score is 45.  Mikey's score is 50.  Joel's score is 45.  
--------
 New Game of Puerto Rico! 

Phil's score is 50.  Mark's score is 40.  Joel's score is 30.  Mikey's score is 30.  Vane's score is 30.  
--------
 New Game of Puerto Rico! 

Mikey's score is 35.  Lee's score is 50.  Joel's score is 30.  James's score is 35.  Phil's score is 35.  
--------
 New Game of Puerto Rico! 

Lee's score is 50.  Phil's score is 40.  Mikey's score is 40.  Joel's score is 50.  Al's score is 45.  
--------
 New Game of Puerto Rico! 

Justin's score is 30.  Joel's score is 30.  Al's score is 35.  James's score is 45.  Vane's score is 35.  
--------
 New Game of Puerto Rico! 

Vane's score is 30.  Mikey's score is 40.  Phil's score is 30.  James's score is 35.  Rod's score is 30.  
